{
"title": "Zencher",
"publisherName": "Zencher",
"feedIdentifier": "io.gitlab.zencherplayground",
"contactURL": "mailto:cora.li@zencher.com",
"formatVersion": "1.0",
"documents": [
	{
		"title": "Tello",
		"overviewSubtitle": "Learn about Tello.",
		"detailSubtitle": "Learn about Tello.",
		"description": "Learn To Control the Tello",
		"contentIdentifier": "io.gitlab.zencherplayground.Tello",
		"contentVersion": "1.0",
		"url": "https://zencherplayground.gitlab.io/zencher.gitlab.io/Tello/Tello.playgroundbook.zip",
		"publishedDate": "2018-07-17T09:00:00+07:00",
		"lastUpdatedDate": "2018-07-17T12:30:00+07:00",
		"thumbnailURL": "https://zencherplayground.gitlab.io/zencher.gitlab.io/Tello/thumbnail.png",
		"bannerImageURL": "https://zencherplayground.gitlab.io/zencher.gitlab.io/Tello/bannerImage.png",
		"additionalInformation": [
			{
				"name": "Languages",
				"value": "English",
			}
		],
		"previewImageURLs": [
			"https://zencherplayground.gitlab.io/zencher.gitlab.io/Tello/previewImage.png"
		]
	}
]
}